%YAML 1.1
%TAG !u! tag:unity3d.com,2011:
--- !u!1045 &1
EditorBuildSettings:
  m_ObjectHideFlags: 0
  serializedVersion: 2
  m_Scenes:
  - enabled: 1
    path: Assets/958321/Lab6/Scene/SceneMainMenu.unity
    guid: d6b23aade0725524dbcce7ac6224c9a0
  - enabled: 1
    path: Assets/958321/Lab6/Scene/SceneOptions.unity
    guid: 20048e8dfebb4164d806e7048f1b3ae0
  - enabled: 1
    path: Assets/958321/Lab6/Scene/SceneGameplay.unity
    guid: 1813b395c5e2df8438fd8b75f995f0c4
  - enabled: 1
    path: Assets/958321/Lab6/Scene/SceneCredits.unity
    guid: 4ca7d65b31627d948b9410e9b9688eb2
  m_configObjects: {}
